{"success":true,"data":{"contracts":[{"reference":"","created_at":"2024-09-11 17:40:09","updated_at":"2024-10-07 18:17:01","signed_at":null,"sent_at":null,"total_price_with_taxe":0,"total_price_without_taxe":0,"mensuality":0,"advance_payment":0,"tax_id":0,"products":[{"id":1375,"product_id":26,"meta_title":null},{"id":1376,"product_id":27,"meta_title":null},{"id":1377,"product_id":28,"meta_title":null},{"id":1378,"product_id":39,"meta_title":null},{"id":1379,"product_id":40,"meta_title":null},{"id":1380,"product_id":41,"meta_title":null}],"remarks":"","is_billable":"YES","is_signed":"NO","installer_user_id":null,"surface_home":10,"id":243,"opened_at":"2024-09-11","opc_at":"2024-09-11 00:00:00","sav_at":"2024-09-11 00:00:00","apf_at":null,"payment_at":null,"closed_at":"2024-09-11 00:00:00","pre_meeting_at":null,"customer":{"id":318,"lastname":"1109","firstname":"1109","company":"","email":"code@gmail.com","phone":"1109060606","mobile":"","address":{"id":226519,"address1":"All\u00e9e Haag","address2":"","country":"FR","postcode":"92600","city":"Asni\u00e8res-sur-Seine"}},"telepro_id":0,"sale_1_id":0,"sale_2_id":0,"assistant_id":0,"created_by_id":341,"creator":{"id":341,"name":"ADMIN FANNY ADMIN FANNY"},"team_id":0,"financial_partner_id":0,"partner_layer_id":null,"polluter_id":114,"polluter":{"id":114,"name":"1-T PNE"},"company_id":null,"campaign_id":null,"contributor_summary":"","state_id":58,"contract_status":{"id":58,"name":"1 OK POUR INTERVENTION","color":"#293fe6","icon":"","value":"1 OK POUR INTERVENTION"},"install_state_id":null,"admin_status_id":null,"opc_status_id":null,"time_state_id":null,"is_confirmed":"NO","is_hold_quote":"YES","is_document":"N","is_photo":"N","is_quality":"N","status":"ACTIVE","is_hold":"NO","is_hold_admin":"NO","surface_top":0,"surface_wall":0,"surface_floor":0,"surface_parcel":0,"pricing":"01.08.2023","class_energy":null,"prime_renov":null,"is_cancelled":false,"is_blowing":false,"is_placement":false}]},"meta":{"current_page":1,"last_page":235,"per_page":1,"total":235,"permitted_fields":["date","customer","company","campaign","is_billable","customer_phone","customer_postcode","customer_city","pricing","surface_home","montant_ttc","telepro","contract_status","id","class_energy","prime_renov","prime_renov_state1","prime_renov_state2","surface_parcel","sale1","sale2","assistant","financial_partner","partner_layer","opc_status","admin_status","time_status","polluter","team","is_confirmed","is_hold","install_status","status"]}}